<?xml version="1.0" encoding="UTF-8" standalone="no"?>
<!-- Created with Inkscape (http://www.inkscape.org/) -->

<svg
   width="184.24567mm"
   height="134.78224mm"
   viewBox="0 0 184.24567 134.78224"
   version="1.1"
   id="svg5"
   inkscape:version="1.1.2 (0a00cf5339, 2022-02-04)"
   sodipodi:docname="shaping4a.svg"
   xmlns:inkscape="http://www.inkscape.org/namespaces/inkscape"
   xmlns:sodipodi="http://sodipodi.sourceforge.net/DTD/sodipodi-0.dtd"
   xmlns="http://www.w3.org/2000/svg"
   xmlns:svg="http://www.w3.org/2000/svg">
  <sodipodi:namedview
     id="namedview7"
     pagecolor="#ffffff"
     bordercolor="#666666"
     borderopacity="1.0"
     inkscape:pageshadow="2"
     inkscape:pageopacity="0.0"
     inkscape:pagecheckerboard="0"
     inkscape:document-units="mm"
     showgrid="false"
     inkscape:zoom="0.95875069"
     inkscape:cx="255.54089"
     inkscape:cy="194.52398"
     inkscape:window-width="1920"
     inkscape:window-height="1003"
     inkscape:window-x="0"
     inkscape:window-y="0"
     inkscape:window-maximized="1"
     inkscape:current-layer="layer1"
     fit-margin-top="10"
     fit-margin-left="10"
     fit-margin-right="10"
     fit-margin-bottom="10" />
  <defs
     id="defs2">
    <inkscape:path-effect
       effect="spiro"
       id="path-effect25094"
       is_visible="true"
       lpeversion="1" />
    <inkscape:path-effect
       effect="spiro"
       id="path-effect25090"
       is_visible="true"
       lpeversion="1" />
    <inkscape:path-effect
       effect="spiro"
       id="path-effect24178"
       is_visible="true"
       lpeversion="1" />
    <marker
       style="overflow:visible"
       id="Arrow1Lend"
       refX="0"
       refY="0"
       orient="auto"
       inkscape:stockid="Arrow1Lend"
       inkscape:isstock="true">
      <path
         transform="matrix(-0.8,0,0,-0.8,-10,0)"
         style="fill:context-stroke;fill-rule:evenodd;stroke:context-stroke;stroke-width:1pt"
         d="M 0,0 5,-5 -12.5,0 5,5 Z"
         id="path22316" />
    </marker>
    <marker
       style="overflow:visible"
       id="Arrow1Mend"
       refX="0"
       refY="0"
       orient="auto"
       inkscape:stockid="Arrow1Mend"
       inkscape:isstock="true">
      <path
         transform="matrix(-0.4,0,0,-0.4,-4,0)"
         style="fill:context-stroke;fill-rule:evenodd;stroke:context-stroke;stroke-width:1pt"
         d="M 0,0 5,-5 -12.5,0 5,5 Z"
         id="path22322" />
    </marker>
    <inkscape:path-effect
       effect="spiro"
       id="path-effect22231"
       is_visible="true"
       lpeversion="1" />
    <rect
       x="56.677761"
       y="382.5372"
       width="470.43234"
       height="137.66287"
       id="rect12648" />
    <inkscape:path-effect
       effect="spiro"
       id="path-effect9973"
       is_visible="true"
       lpeversion="1" />
    <inkscape:path-effect
       effect="spiro"
       id="path-effect8887"
       is_visible="true"
       lpeversion="1" />
    <inkscape:path-effect
       effect="spiro"
       id="path-effect8883"
       is_visible="true"
       lpeversion="1" />
    <inkscape:path-effect
       effect="spiro"
       id="path-effect8879"
       is_visible="true"
       lpeversion="1" />
    <inkscape:path-effect
       effect="spiro"
       id="path-effect8875"
       is_visible="true"
       lpeversion="1" />
    <inkscape:path-effect
       effect="spiro"
       id="path-effect9973-1"
       is_visible="true"
       lpeversion="1" />
    <inkscape:path-effect
       effect="spiro"
       id="path-effect8875-2"
       is_visible="true"
       lpeversion="1" />
    <marker
       style="overflow:visible"
       id="Arrow1Lend-2"
       refX="0"
       refY="0"
       orient="auto"
       inkscape:stockid="Arrow1Lend"
       inkscape:isstock="true">
      <path
         transform="matrix(-0.8,0,0,-0.8,-10,0)"
         style="fill:context-stroke;fill-rule:evenodd;stroke:context-stroke;stroke-width:1pt"
         d="M 0,0 5,-5 -12.5,0 5,5 Z"
         id="path22316-2" />
    </marker>
    <inkscape:path-effect
       effect="spiro"
       id="path-effect22231-6"
       is_visible="true"
       lpeversion="1" />
    <marker
       style="overflow:visible"
       id="Arrow1Lend-2-0"
       refX="0"
       refY="0"
       orient="auto"
       inkscape:stockid="Arrow1Lend"
       inkscape:isstock="true">
      <path
         transform="matrix(-0.8,0,0,-0.8,-10,0)"
         style="fill:context-stroke;fill-rule:evenodd;stroke:context-stroke;stroke-width:1pt"
         d="M 0,0 5,-5 -12.5,0 5,5 Z"
         id="path22316-2-6" />
    </marker>
    <inkscape:path-effect
       effect="spiro"
       id="path-effect24178-1"
       is_visible="true"
       lpeversion="1" />
  </defs>
  <g
     inkscape:label="Layer 1"
     inkscape:groupmode="layer"
     id="layer1"
     transform="translate(1.9621539,-9.8598652)">
    <text
       xml:space="preserve"
       style="font-style:normal;font-variant:normal;font-weight:normal;font-stretch:normal;font-size:28.2222px;line-height:1.25;font-family:sans-serif;-inkscape-font-specification:'sans-serif, Normal';font-variant-ligatures:normal;font-variant-caps:normal;font-variant-numeric:normal;font-variant-east-asian:normal;letter-spacing:0px;word-spacing:0px;stroke-width:0.264583"
       x="12.378032"
       y="55.03701"
       id="text2546"><tspan
         sodipodi:role="line"
         id="tspan10125"
         x="12.378032"
         y="55.03701">V A ^ f i</tspan></text>
    <rect
       style="fill:none;stroke:#000000;stroke-width:0.290124;stroke-linejoin:miter;stroke-miterlimit:0;stroke-dasharray:none;stroke-dashoffset:0;stroke-opacity:1"
       id="rect8736"
       width="156.24229"
       height="36.210552"
       x="8.1829081"
       y="28.095163"
       ry="1.7836288" />
    <path
       style="fill:none;stroke:#000000;stroke-width:0.264583px;stroke-linecap:butt;stroke-linejoin:miter;stroke-opacity:1"
       d="M 65.5,27.993152 V 64.644028"
       id="path8873"
       inkscape:path-effect="#path-effect8875"
       inkscape:original-d="m 65.5,27.993152 c -0.05767,12.217222 0.0582,24.43418 0,36.650876"
       sodipodi:nodetypes="cc" />
    <path
       style="fill:none;stroke:#000000;stroke-width:0.264583px;stroke-linecap:butt;stroke-linejoin:miter;stroke-opacity:1"
       d="M 36.267037,27.99 V 64.64"
       id="path8873-7"
       inkscape:path-effect="#path-effect8875-2"
       inkscape:original-d="m 36.267037,27.99 c -0.05767,12.217222 0.0582,24.433304 0,36.65"
       sodipodi:nodetypes="cc" />
    <path
       style="fill:none;stroke:#000000;stroke-width:0.264583px;stroke-linecap:butt;stroke-linejoin:miter;stroke-opacity:1"
       d="M 95.08461,27.99 95,64.6"
       id="path8877"
       inkscape:path-effect="#path-effect8879"
       inkscape:original-d="M 95.08461,27.99 C 95.13315,39.572516 95.056671,53.018013 95,64.6"
       sodipodi:nodetypes="cc" />
    <path
       style="fill:none;stroke:#000000;stroke-width:0.264583px;stroke-linecap:butt;stroke-linejoin:miter;stroke-opacity:1"
       d="M 116,27.99 V 64.6"
       id="path8881"
       inkscape:path-effect="#path-effect8883"
       inkscape:original-d="m 116,27.99 c -0.16387,11.549486 0.16437,25.061043 0,36.61"
       sodipodi:nodetypes="cc" />
    <path
       style="fill:none;stroke:#000000;stroke-width:0.264;stroke-linecap:butt;stroke-linejoin:miter;stroke-miterlimit:4;stroke-dasharray:none;stroke-opacity:1"
       d="M 132,27.99 V 64.6"
       id="path8885"
       inkscape:path-effect="#path-effect8887"
       inkscape:original-d="m 132,27.99 c 0.0597,11.391936 -0.0602,25.218592 0,36.61"
       sodipodi:nodetypes="cc" />
    <rect
       style="fill:#ffffff;fill-opacity:1;stroke:none;stroke-width:1;stroke-linejoin:miter;stroke-miterlimit:0;stroke-dasharray:none;stroke-dashoffset:0;stroke-opacity:1"
       id="rect9428"
       width="29.064886"
       height="55.79269"
       x="143.21863"
       y="19.859865"
       ry="1.7836276" />
    <path
       style="fill:none;stroke:#000000;stroke-width:0.264583;stroke-linecap:butt;stroke-linejoin:miter;stroke-miterlimit:4;stroke-dasharray:0.264583, 0.529166;stroke-dashoffset:0;stroke-opacity:1"
       d="m 115.62853,64.170201 32.4252,0.105161"
       id="path9971-7"
       inkscape:path-effect="#path-effect9973-1"
       inkscape:original-d="m 115.62853,64.170201 32.4252,0.105161" />
    <path
       style="fill:none;stroke:#000000;stroke-width:0.264583;stroke-linecap:butt;stroke-linejoin:miter;stroke-miterlimit:4;stroke-dasharray:0.264583, 0.529166;stroke-dashoffset:0;stroke-opacity:1"
       d="m 116.1249,27.990001 32.4252,0.105161"
       id="path9971"
       inkscape:path-effect="#path-effect9973"
       inkscape:original-d="m 116.1249,27.990001 32.4252,0.105161" />
    <text
       xml:space="preserve"
       transform="matrix(0.26458333,0,0,0.26458333,29.401241,8.4590282)"
       id="text12646"
       style="font-style:normal;font-variant:normal;font-weight:normal;font-stretch:normal;font-size:106.667px;line-height:1.25;font-family:sans-serif;-inkscape-font-specification:'sans-serif, Normal';font-variant-ligatures:normal;font-variant-caps:normal;font-variant-numeric:normal;font-variant-east-asian:normal;letter-spacing:0px;word-spacing:0px;white-space:pre;shape-inside:url(#rect12648)"><tspan
         x="56.677734"
         y="476.9124"
         id="tspan28002">VÂfi</tspan></text>
    <path
       style="fill:none;stroke:#000000;stroke-width:0.264583px;stroke-linecap:butt;stroke-linejoin:miter;stroke-opacity:1;marker-end:url(#Arrow1Lend)"
       d="m 104.15913,64.454411 c -1.08496,3.128847 -1.68608,6.424959 -1.77546,9.735373 -0.0683,2.529572 0.15998,5.06042 0.0854,7.589816 -0.0746,2.529396 -0.47331,5.110523 -1.6992,7.32425 -0.999228,1.804415 -2.493804,3.273044 -3.805321,4.86499 -3.670303,4.455088 -5.956613,10.03445 -6.46797,15.78401"
       id="path22229"
       inkscape:path-effect="#path-effect22231"
       inkscape:original-d="m 104.15913,64.454411 c -2.91248,3.211253 1.13755,6.524649 -1.77546,9.735373 -2.913007,3.210724 -5.472252,18.040675 -1.61376,14.914066 16.20381,-13.130248 -0.58548,4.721581 -3.805321,4.86499 -13.951319,0.62138 -5.564346,10.90922 -6.46797,15.78401"
       sodipodi:nodetypes="csssc" />
    <path
       style="fill:none;stroke:#000000;stroke-width:0.264583px;stroke-linecap:butt;stroke-linejoin:miter;stroke-opacity:1;marker-end:url(#Arrow1Lend-2)"
       d="m 122.93097,64.187386 c -1.55083,2.9683 -2.17863,6.410716 -1.77546,9.735373 0.29411,2.425324 1.11589,4.754987 1.55511,7.158273 0.21961,1.201643 0.34326,2.427636 0.25347,3.645877 -0.0898,1.218241 -0.39901,2.431705 -1.00332,3.493303 -0.79602,1.398382 -2.07854,2.482053 -3.51483,3.207437 -1.4363,0.725385 -3.02399,1.110441 -4.61948,1.319068 -3.19099,0.417254 -6.45895,0.151794 -9.6138,0.786931 -3.74465,0.753877 -7.215339,2.804904 -9.681874,5.721571 -2.466536,2.916671 -3.912689,6.679781 -4.034207,10.497631"
       id="path22229-1"
       inkscape:path-effect="#path-effect22231-6"
       inkscape:original-d="m 122.93097,64.187386 c -2.91248,3.211253 1.13755,6.524649 -1.77546,9.735373 -2.91301,3.210724 -0.36698,9.471532 0.80526,14.297453 1.17224,4.825918 -12.58207,1.92988 -17.74811,5.313436 -5.923081,3.879391 -27.53572,-1.69933 -13.716081,16.219202"
       sodipodi:nodetypes="cssac" />
  </g>
</svg>
